<?xml version="1.0" encoding="UTF-8" standalone="no"?>
<svg
   xmlns:dc="http://purl.org/dc/elements/1.1/"
   xmlns:cc="http://creativecommons.org/ns#"
   xmlns:rdf="http://www.w3.org/1999/02/22-rdf-syntax-ns#"
   xmlns:svg="http://www.w3.org/2000/svg"
   xmlns="http://www.w3.org/2000/svg"
   xmlns:xlink="http://www.w3.org/1999/xlink"
   xmlns:sodipodi="http://sodipodi.sourceforge.net/DTD/sodipodi-0.dtd"
   xmlns:inkscape="http://www.inkscape.org/namespaces/inkscape"
   width="17.066669"
   id="svg7384"
   version="1.1"
   inkscape:version="1.0.2 (e86c870879, 2021-01-15)"
   height="17.066669"
   sodipodi:docname="logo_ph.svg"
   viewBox="0 0 16.000003 16.000003"
   inkscape:export-filename="/home/wus/Projects/protohand-lua/ico/256.png"
   inkscape:export-xdpi="1407.02"
   inkscape:export-ydpi="1407.02">
  <metadata
     id="metadata90">
    <rdf:RDF>
      <cc:Work
         rdf:about="">
        <dc:format>image/svg+xml</dc:format>
        <dc:type
           rdf:resource="http://purl.org/dc/dcmitype/StillImage" />
        <dc:title>Gnome Symbolic Icon Theme</dc:title>
        <cc:license
           rdf:resource="http://creativecommons.org/licenses/by/4.0/" />
      </cc:Work>
      <cc:License
         rdf:about="http://creativecommons.org/licenses/by/4.0/">
        <cc:permits
           rdf:resource="http://creativecommons.org/ns#Reproduction" />
        <cc:permits
           rdf:resource="http://creativecommons.org/ns#Distribution" />
        <cc:requires
           rdf:resource="http://creativecommons.org/ns#Notice" />
        <cc:requires
           rdf:resource="http://creativecommons.org/ns#Attribution" />
        <cc:permits
           rdf:resource="http://creativecommons.org/ns#DerivativeWorks" />
      </cc:License>
    </rdf:RDF>
  </metadata>
  <sodipodi:namedview
     inkscape:object-nodes="true"
     inkscape:snap-bbox="true"
     gridtolerance="10"
     id="namedview88"
     inkscape:window-width="1991"
     inkscape:object-paths="true"
     inkscape:snap-to-guides="true"
     inkscape:window-x="40"
     inkscape:window-y="960"
     pagecolor="#ffffff"
     inkscape:snap-nodes="true"
     inkscape:snap-bbox-midpoints="false"
     inkscape:snap-grids="true"
     inkscape:cx="7.9281775"
     inkscape:cy="14.934626"
     inkscape:pageopacity="0"
     inkscape:guide-bbox="true"
     inkscape:bbox-paths="false"
     showborder="true"
     inkscape:window-height="1303"
     inkscape:pageshadow="2"
     inkscape:zoom="45.254831"
     guidetolerance="10"
     inkscape:snap-global="true"
     inkscape:current-layer="g4953"
     borderopacity="1"
     showgrid="true"
     showguides="true"
     inkscape:snap-others="false"
     bordercolor="#666666"
     objecttolerance="10"
     inkscape:window-maximized="0"
     inkscape:pagecheckerboard="true"
     borderlayer="true"
     fit-margin-top="0"
     fit-margin-left="0"
     fit-margin-right="0"
     fit-margin-bottom="0"
     inkscape:document-rotation="0">
    <inkscape:grid
       id="grid4866"
       empspacing="2"
       type="xygrid"
       enabled="true"
       snapvisiblegridlinesonly="true"
       spacingx="0.99999995"
       spacingy="0.99999995"
       visible="true"
       originx="-9.3309374e-06"
       originy="4.920312e-07" />
  </sodipodi:namedview>
  <title
     id="title9167">Gnome Symbolic Icon Theme</title>
  <defs
     id="defs7386">
    <linearGradient
       gradientTransform="translate(-482.00017,-462.99941)"
       inkscape:collect="always"
       xlink:href="#linearGradient4528"
       id="linearGradient4530"
       x1="484.00018"
       y1="470.99942"
       x2="486.00018"
       y2="470.99942"
       gradientUnits="userSpaceOnUse" />
    <linearGradient
       inkscape:collect="always"
       id="linearGradient4528">
      <stop
         style="stop-color:#ffffff;stop-opacity:1"
         offset="0"
         id="stop4524" />
      <stop
         style="stop-color:#000000;stop-opacity:0;"
         offset="1"
         id="stop4526" />
    </linearGradient>
    <linearGradient
       inkscape:collect="always"
       xlink:href="#linearGradient4528"
       id="linearGradient4625"
       x1="0.94726562"
       y1="8"
       x2="5.0527344"
       y2="8"
       gradientUnits="userSpaceOnUse" />
  </defs>
  <g
     id="layer9"
     inkscape:groupmode="layer"
     inkscape:label="status"
     style="display:inline"
     transform="translate(-482.00018,-461.99942)"
     sodipodi:insensitive="true" />
  <g
     id="layer10"
     inkscape:groupmode="layer"
     inkscape:label="devices"
     transform="translate(-482.00018,-461.99942)"
     sodipodi:insensitive="true"
     style="display:inline" />
  <g
     id="layer11"
     inkscape:groupmode="layer"
     inkscape:label="apps"
     transform="translate(-482.00018,-461.99942)"
     sodipodi:insensitive="true"
     style="display:inline" />
  <g
     id="layer13"
     inkscape:groupmode="layer"
     inkscape:label="places"
     transform="translate(-482.00018,-461.99942)"
     sodipodi:insensitive="true"
     style="display:inline" />
  <g
     id="layer14"
     inkscape:groupmode="layer"
     inkscape:label="mimetypes"
     transform="translate(-482.00018,-461.99942)"
     sodipodi:insensitive="true"
     style="display:inline" />
  <g
     id="layer15"
     inkscape:groupmode="layer"
     inkscape:label="emblems"
     style="display:inline"
     transform="translate(-482.00018,-461.99942)"
     sodipodi:insensitive="true" />
  <g
     id="g71291"
     inkscape:groupmode="layer"
     inkscape:label="emotes"
     style="display:inline"
     transform="translate(-482.00018,-461.99942)"
     sodipodi:insensitive="true" />
  <g
     id="g4953"
     inkscape:groupmode="layer"
     inkscape:label="categories"
     style="display:inline"
     transform="translate(-482.00018,-461.99942)">
    <rect
       width="6"
       id="rect5455"
       style="color:#000000;display:inline;overflow:visible;visibility:visible;opacity:1;fill:#e81b00;fill-opacity:1;fill-rule:nonzero;stroke:none;stroke-width:0.375;stroke-miterlimit:2.66666675;stroke-dasharray:none;marker:none;enable-background:accumulate"
       height="16"
       ry="2.9860001"
       rx="2.9337087"
       y="461.99942"
       x="482.00018"
       inkscape:export-xdpi="1407.02"
       inkscape:export-ydpi="1407.02" />
    <path
       id="path256-4-4"
       style="color:#000000;display:inline;overflow:visible;visibility:visible;fill:#8e8e8e;fill-opacity:1;fill-rule:nonzero;stroke:none;stroke-width:0.37499997;stroke-miterlimit:0;stroke-dasharray:none;marker:none;enable-background:accumulate"
       sodipodi:nodetypes="csccccccssc"
       d="m 487.40645,461.99942 c 0.87799,0.71298 1.46875,1.79213 1.46875,3 v 1 h 2.125 c -0.0742,-1.09265 1.2487,-2 2,-2 0.68073,0 1,0.0117 1,1 v 1 h 1.21875 c 1.22869,-0.60001 1.78125,-1.96908 1.78125,-2.6875 0,-0.73589 -2.38538,-1.3125 -3.6875,-1.3125 z"
       inkscape:connector-curvature="0" />
    <g
       id="layer2-3"
       inkscape:label="Layer 2"
       transform="matrix(0.08756677,0,0,0.08756677,488.64067,469.65741)" />
    <g
       inkscape:label="Layer 1"
       id="layer1-6"
       transform="matrix(0.08756677,0,0,0.08756677,488.64067,452.40676)"
       style="display:inline">
      <g
         id="g4580"
         transform="translate(2.9399648,-10.824416)">
        <rect
           ry="10.488839"
           transform="rotate(-45)"
           y="179.85437"
           x="-184.17773"
           height="70.64798"
           width="70.152367"
           id="rect4529"
           style="fill:#ffcf00;fill-opacity:1;stroke:#ffffff;stroke-width:0;stroke-linecap:square;stroke-linejoin:miter;stroke-miterlimit:5;stroke-dasharray:none;stroke-opacity:1;paint-order:markers stroke fill" />
        <path
           transform="matrix(0.26458333,0,0,0.26458333,0,197)"
           id="rect4529-8"
           d="m 175.99609,74.392578 c -9.12033,0 -18.24004,3.493948 -25.22851,10.482422 L 32.486328,203.15625 c -13.976947,13.97695 -13.976947,36.48204 0,50.45898 L 151.95898,373.08789 c 13.97695,13.97695 36.48204,13.97695 50.45899,0 L 320.69922,254.80664 c 13.97695,-13.97695 13.97695,-36.48008 0,-50.45703 L 201.22461,84.875 C 194.23614,77.886526 185.11643,74.392578 175.99609,74.392578 Z m 0.082,21.212891 c 1.96721,0 3.93459,0.189563 5.87305,0.566406 1.93847,0.376843 3.84697,0.941626 5.69922,1.695313 1.85225,0.753686 3.64692,1.695641 5.35547,2.826172 1.70855,1.13053 3.33247,2.44966 4.83984,3.95703 L 300.9238,207.72852 c 1.50737,1.50737 2.8265,3.12934 3.95703,4.83789 1.13053,1.70855 2.07248,3.50322 2.82617,5.35547 0.75369,1.85224 1.31847,3.7627 1.69531,5.70117 0.37685,1.93846 0.56641,3.90584 0.56641,5.87304 0,1.96721 -0.18956,3.93459 -0.56641,5.87305 -0.37684,1.93847 -0.94162,3.84893 -1.69531,5.70117 -0.75369,1.85225 -1.69564,3.64692 -2.82617,5.35547 -1.13053,1.70855 -2.44966,3.33052 -3.95703,4.83789 L 198.87305,353.31445 c -1.50738,1.50738 -3.12934,2.8265 -4.83789,3.95703 -1.70855,1.13053 -3.50323,2.07249 -5.35547,2.82618 -1.85225,0.75368 -3.76271,1.31847 -5.70117,1.69531 -1.93847,0.37684 -3.90389,0.56445 -5.8711,0.56445 -1.9672,0 -3.93458,-0.18761 -5.87304,-0.56445 -1.93847,-0.37684 -3.84893,-0.94163 -5.70118,-1.69531 -1.85224,-0.75369 -3.64692,-1.69565 -5.35547,-2.82618 -1.70855,-1.13053 -3.33051,-2.44965 -4.83789,-3.95703 L 52.259766,250.23438 c -1.507374,-1.50738 -2.826501,-3.12935 -3.957032,-4.8379 -1.13053,-1.70855 -2.072485,-3.50322 -2.826172,-5.35546 -0.753686,-1.85225 -1.318469,-3.76271 -1.695312,-5.70118 -0.376843,-1.93846 -0.564453,-3.90584 -0.564453,-5.87304 0,-1.96721 0.18761,-3.93263 0.564453,-5.8711 0.376843,-1.93846 0.941626,-3.84892 1.695312,-5.70117 0.753687,-1.85225 1.695642,-3.64692 2.826172,-5.35547 1.130531,-1.70855 2.449658,-3.33051 3.957032,-4.83789 L 154.31055,104.65039 c 1.50737,-1.50737 3.12934,-2.8265 4.83789,-3.95703 1.70855,-1.130531 3.50322,-2.072486 5.35547,-2.826172 1.85224,-0.753687 3.7627,-1.31847 5.70117,-1.695313 1.93846,-0.376843 3.90584,-0.566406 5.87304,-0.566406 z"
           style="display:inline;fill:#000000;fill-opacity:1;stroke:#ffffff;stroke-width:0;stroke-linecap:square;stroke-linejoin:miter;stroke-miterlimit:5;stroke-dasharray:none;stroke-opacity:1;paint-order:markers stroke fill"
           inkscape:connector-curvature="0" />
        <rect
           ry="3.3051918"
           y="251.43054"
           x="26.780518"
           height="12.160767"
           width="33.188309"
           id="rect4572"
           style="fill:#000000;fill-opacity:1;stroke:#ffffff;stroke-width:0;stroke-linecap:square;stroke-linejoin:miter;stroke-miterlimit:5;stroke-dasharray:none;stroke-opacity:1;paint-order:markers stroke fill" />
        <path
           inkscape:connector-curvature="0"
           id="path4574"
           d="M 73.098215,257.44411 58.264758,243.41246 v 28.19694 z"
           style="fill:none;fill-opacity:1;stroke:none;stroke-width:0.265;stroke-linecap:butt;stroke-linejoin:miter;stroke-miterlimit:4;stroke-dasharray:none;stroke-opacity:1" />
      </g>
    </g>
    <g
       id="layer3"
       inkscape:label="Layer 3"
       transform="matrix(0.08756677,0,0,0.08756677,488.64067,452.40676)"
       style="display:inline">
      <path
         style="fill:#000000;fill-opacity:1;stroke:none;stroke-width:0.265;stroke-linecap:butt;stroke-linejoin:miter;stroke-miterlimit:4;stroke-dasharray:none;stroke-opacity:1"
         d="m 57.113425,235.53567 c 0,-1.61478 1.710306,-1.61987 2.15229,-1.19833 l 11.922744,11.285 c 0.563456,0.5375 0.594799,1.35104 0,2.00574 L 59.336522,258.9351 c -1.030349,1.03035 -2.218635,0.56813 -2.218635,-0.73881 z"
         id="path839"
         sodipodi:nodetypes="ccccccc" />
    </g>
  </g>
  <g
     id="layer12"
     inkscape:groupmode="layer"
     inkscape:label="actions"
     style="display:inline"
     transform="translate(-482.00018,-461.99942)"
     sodipodi:insensitive="true" />
  <g
     inkscape:groupmode="layer"
     id="layer1"
     inkscape:label="glow"
     style="display:inline"
     transform="translate(-9.3309375e-6,4.2029306e-6)">
    <g
       id="g4650"
       transform="matrix(1.4177844,0,0,1.4177844,2.4378926,-20.091911)">
      <rect
         width="0.82720584"
         y="16"
         x="-0.0073531568"
         height="2.8124998"
         id="rect4631"
         style="opacity:1;fill:#ffffff;fill-opacity:1;stroke-width:0.85253108" />
      <rect
         transform="rotate(90)"
         width="0.82720584"
         y="-1.8124995"
         x="16.992647"
         height="2.8124995"
         id="rect4631-7"
         style="opacity:1;fill:#ffffff;fill-opacity:1;stroke-width:0.85253102" />
    </g>
  </g>
  <g
     inkscape:groupmode="layer"
     id="layer2"
     inkscape:label="glow 1"
     sodipodi:insensitive="true"
     style="display:none"
     transform="translate(-0.18750622,-0.18749931)">
    <path
       transform="translate(0.16601229,0.17383075)"
       sodipodi:type="inkscape:offset"
       inkscape:radius="-0.16113281"
       inkscape:original="M 2.9335938 0 C 1.3217695 1.4553369e-08 -8.8817842e-16 1.3510445 0 2.9863281 L 0 13.013672 C -2.0965078e-16 14.648955 1.3217695 16 2.9335938 16 L 3.0664062 16 C 4.6782305 16 6 14.648955 6 13.013672 L 6 2.9863281 C 6 1.3510444 4.6782305 2.910674e-08 3.0664062 0 L 2.9335938 0 z "
       style="color:#000000;display:inline;overflow:visible;visibility:visible;opacity:0.34501349;fill:url(#linearGradient4625);fill-opacity:1;fill-rule:nonzero;stroke:none;stroke-width:2;marker:none;enable-background:accumulate"
       id="rect5455-3"
       d="M 2.9335938,0.16015625 C 1.4118114,0.16015626 0.16015625,1.4378716 0.16015625,2.9863281 V 13.013672 c 0,1.548456 1.25165515,2.826172 2.77343755,2.826172 h 0.1328124 c 1.5217824,0 2.7734376,-1.277716 2.7734376,-2.826172 V 2.9863281 c 0,-1.5484566 -1.2516551,-2.82617182 -2.7734376,-2.82617185 z" />
  </g>
</svg>
